EESchema Schematic File Version 4
LIBS:CRAZYSHARK-cache
EELAYER 30 0
EELAYER END
$Descr A4 11693 8268
encoding utf-8
Sheet 1 2
Title "CRAZY SHARK ESC"
Date "2019-07-28"
Rev "0.0.1"
Comp "Hexagon Robotics"
Comment1 "Contribuitors: Javier Hdez."
Comment2 "Mail: jh@hexagonrobotics.com"
Comment3 "GNU General Public License GPLv3"
Comment4 ""
$EndDescr
$Comp
L Diode:1N4148WS D1
U 1 1 5CFC3D3F
P 900 6550
F 0 "D1" H 900 6767 50  0000 C CNN
F 1 "RB521S-30" H 900 6676 50  0000 C CNN
F 2 "Diode_SMD:D_SOD-523" H 900 6375 50  0001 C CNN
F 3 "https://datasheet.lcsc.com/szlcsc/SK-RB521S-30_C122862.pdf" H 900 6550 50  0001 C CNN
F 4 "RB521S-30" H 900 6550 50  0001 C CNN "MPN"
	1    900  6550
	0    -1   -1   0   
$EndComp
Text Label 7350 1350 1    50   ~ 0
AHigh
Wire Wire Line
	7350 1350 7350 1500
Text Label 7200 1350 1    50   ~ 0
BHigh
Text Label 7050 1350 1    50   ~ 0
CHigh
Wire Wire Line
	7050 1350 7050 1500
Wire Wire Line
	7200 1350 7200 1500
Text Label 6450 1700 2    50   ~ 0
ALow
Text Label 6450 1850 2    50   ~ 0
BLow
Text Label 6450 2000 2    50   ~ 0
CLow
Wire Wire Line
	6450 2000 6650 2000
Wire Wire Line
	6450 1850 6650 1850
Wire Wire Line
	6450 1700 6650 1700
Text Label 8350 1700 0    50   ~ 0
A
Text Label 8350 2150 0    50   ~ 0
B
Text Label 7800 2800 3    50   ~ 0
C
Wire Wire Line
	7800 2800 7800 2600
Wire Wire Line
	8150 2150 8350 2150
Wire Wire Line
	8150 1700 8350 1700
Text Label 7650 1350 1    50   ~ 0
VB1
Text Label 8350 1850 0    50   ~ 0
VB2
Text Label 8350 2300 0    50   ~ 0
VB3
Wire Wire Line
	8350 2450 8150 2450
Wire Wire Line
	8150 2300 8350 2300
Wire Wire Line
	8150 2000 8350 2000
Wire Wire Line
	8350 1850 8150 1850
Wire Wire Line
	7800 1500 7800 1350
Wire Wire Line
	7650 1350 7650 1500
Wire Wire Line
	6500 2450 6650 2450
$Comp
L Device:C C1
U 1 1 5D0FEA2E
P 900 7200
F 0 "C1" H 1015 7246 50  0000 L CNN
F 1 "1uF" H 1015 7155 50  0000 L CNN
F 2 "Capacitor_SMD:C_0402_1005Metric" H 938 7050 50  0001 C CNN
F 3 "~" H 900 7200 50  0001 C CNN
F 4 "EMK105BJ105KVHF" H 900 7200 50  0001 C CNN "MPN"
	1    900  7200
	1    0    0    -1  
$EndComp
Wire Wire Line
	900  6700 900  7000
Wire Wire Line
	1450 6700 1450 7000
Wire Wire Line
	2000 7050 2000 7000
Text Label 1900 7000 2    50   ~ 0
VB3
Text Label 1350 7000 2    50   ~ 0
VB2
Text Label 800  7000 2    50   ~ 0
VB1
Wire Wire Line
	800  7000 900  7000
Connection ~ 900  7000
Wire Wire Line
	900  7000 900  7050
Wire Wire Line
	1900 7000 2000 7000
Connection ~ 2000 7000
Wire Wire Line
	2000 7000 2000 6700
Wire Wire Line
	1350 7000 1450 7000
Connection ~ 1450 7000
Wire Wire Line
	1450 7000 1450 7050
Text Label 850  7550 2    50   ~ 0
A
Wire Wire Line
	850  7550 900  7550
Wire Wire Line
	900  7550 900  7350
Text Label 1400 7550 2    50   ~ 0
B
Text Label 1950 7550 2    50   ~ 0
C
Wire Wire Line
	1950 7550 2000 7550
Wire Wire Line
	2000 7550 2000 7350
Wire Wire Line
	1400 7550 1450 7550
Wire Wire Line
	1450 7550 1450 7350
$Comp
L CRAZYSHARK-rescue:FD6288Q-CRAZYSHARK U2
U 1 1 5D1B3E55
P 7350 2050
F 0 "U2" H 6750 2550 50  0000 L CNN
F 1 "FD6288Q" H 7900 2600 50  0000 L CNN
F 2 "Package_DFN_QFN:QFN-24-1EP_4x4mm_P0.5mm_EP2.7x2.6mm" H 7050 2050 50  0001 C CNN
F 3 "https://datasheet.lcsc.com/szlcsc/Fortior-Tech-FD6288Q_C328453.pdf" H 7050 2050 50  0001 C CNN
F 4 "FD6288Q" H 7350 2050 50  0001 C CNN "MPN"
	1    7350 2050
	1    0    0    -1  
$EndComp
$Comp
L CRAZYSHARK-rescue:LED_RGBA-CRAZYSHARK D4
U 1 1 5D1BC9E4
P 5750 4300
F 0 "D4" H 5750 4797 50  0000 C CNN
F 1 "LED_RGBA" H 5750 4706 50  0000 C CNN
F 2 "HexagonRobotics:SMD LED 3528 RGBA" H 5750 4250 50  0001 C CNN
F 3 "~" H 5750 4250 50  0001 C CNN
F 4 "LED RGBA 3528" H 5750 4300 50  0001 C CNN "MPN"
	1    5750 4300
	1    0    0    -1  
$EndComp
Text Notes 5050 4750 0    50   ~ 0
REF:-2,6 2,0/3,0-3,4/3,2-3,4 V
$Comp
L Mechanical:MountingHole_Pad J1
U 1 1 5D1C2DB3
P 10750 3600
F 0 "J1" V 10600 3500 50  0000 L CNN
F 1 "GND" V 10750 3800 50  0000 L CNN
F 2 "TestPoint:TestPoint_Pad_1.5x1.5mm" H 10750 3600 50  0001 C CNN
F 3 "~" H 10750 3600 50  0001 C CNN
	1    10750 3600
	0    1    1    0   
$EndComp
$Comp
L Mechanical:MountingHole_Pad J3
U 1 1 5D1C30F3
P 10750 3950
F 0 "J3" V 10650 3850 50  0000 L CNN
F 1 "Sig" V 10750 4150 50  0000 L CNN
F 2 "TestPoint:TestPoint_Pad_1.5x1.5mm" H 10750 3950 50  0001 C CNN
F 3 "~" H 10750 3950 50  0001 C CNN
	1    10750 3950
	0    1    1    0   
$EndComp
$Comp
L Connector_Generic:Conn_01x01 J4
U 1 1 5D1BAFCC
P 10450 900
F 0 "J4" H 10530 942 50  0000 L CNN
F 1 "Conn_01x01" H 10530 851 50  0000 L CNN
F 2 "TestPoint:TestPoint_Pad_D1.0mm" H 10450 900 50  0001 C CNN
F 3 "~" H 10450 900 50  0001 C CNN
	1    10450 900 
	1    0    0    -1  
$EndComp
$Comp
L Connector_Generic:Conn_01x01 J5
U 1 1 5D1BB0C2
P 10450 1200
F 0 "J5" H 10530 1242 50  0000 L CNN
F 1 "Conn_01x01" H 10530 1151 50  0000 L CNN
F 2 "TestPoint:TestPoint_Pad_D1.0mm" H 10450 1200 50  0001 C CNN
F 3 "~" H 10450 1200 50  0001 C CNN
	1    10450 1200
	1    0    0    -1  
$EndComp
Text Label 10050 900  2    50   ~ 0
SWD_CLK
Text Label 10050 1200 2    50   ~ 0
SWD_DIO
Wire Wire Line
	10250 900  10050 900 
Text Notes 10200 650  0    50   ~ 0
SWD
Wire Notes Line
	9550 500  11150 500 
Wire Notes Line
	11150 500  11150 1400
Wire Notes Line
	11150 1400 9550 1400
Wire Notes Line
	9550 1400 9550 500 
Text Label 3450 3650 0    50   ~ 0
SWD_CLK
Text Label 3450 3550 0    50   ~ 0
SWD_DIO
Wire Wire Line
	3450 3550 3300 3550
$Comp
L Device:C C8
U 1 1 5D1CD5F3
P 2500 1650
F 0 "C8" H 2615 1696 50  0000 L CNN
F 1 "0.1uF" H 2615 1605 50  0000 L CNN
F 2 "Capacitor_SMD:C_0402_1005Metric" H 2538 1500 50  0001 C CNN
F 3 "~" H 2500 1650 50  0001 C CNN
F 4 "GRM155R71A104KA01D" H 2500 1650 50  0001 C CNN "MPN"
	1    2500 1650
	1    0    0    -1  
$EndComp
$Comp
L Device:C C7
U 1 1 5D1CD98E
P 2050 1650
F 0 "C7" H 2165 1696 50  0000 L CNN
F 1 "0.1uF" H 2165 1605 50  0000 L CNN
F 2 "Capacitor_SMD:C_0402_1005Metric" H 2088 1500 50  0001 C CNN
F 3 "~" H 2050 1650 50  0001 C CNN
F 4 "GRM155R71A104KA01D" H 2050 1650 50  0001 C CNN "MPN"
	1    2050 1650
	1    0    0    -1  
$EndComp
Wire Wire Line
	2050 1900 2050 1800
Wire Wire Line
	2500 1800 2500 1900
Wire Wire Line
	2050 1500 2050 1400
Wire Wire Line
	2050 1400 2500 1400
Wire Wire Line
	2500 1400 2500 1500
Wire Wire Line
	2500 1400 2900 1400
Wire Wire Line
	2900 1400 2900 1950
Connection ~ 2500 1400
Text Label 1900 1400 2    50   ~ 0
3V3
Wire Wire Line
	1900 1400 2050 1400
Connection ~ 2050 1400
$Comp
L Device:R R6
U 1 1 5D1F8A31
P 7300 4000
F 0 "R6" H 7370 4046 50  0000 L CNN
F 1 "50K" H 7370 3955 50  0000 L CNN
F 2 "Resistor_SMD:R_0402_1005Metric" V 7230 4000 50  0001 C CNN
F 3 "~" H 7300 4000 50  0001 C CNN
	1    7300 4000
	0    -1   -1   0   
$EndComp
$Comp
L Device:R R7
U 1 1 5D1F8BD1
P 8500 4700
F 0 "R7" H 8570 4746 50  0000 L CNN
F 1 "10K" H 8570 4655 50  0000 L CNN
F 2 "Resistor_SMD:R_0402_1005Metric" V 8430 4700 50  0001 C CNN
F 3 "~" H 8500 4700 50  0001 C CNN
	1    8500 4700
	0    -1   -1   0   
$EndComp
$Comp
L Device:R R8
U 1 1 5D1F8F1B
P 8500 4350
F 0 "R8" H 8570 4396 50  0000 L CNN
F 1 "10K" H 8570 4305 50  0000 L CNN
F 2 "Resistor_SMD:R_0402_1005Metric" V 8430 4350 50  0001 C CNN
F 3 "~" H 8500 4350 50  0001 C CNN
	1    8500 4350
	0    -1   -1   0   
$EndComp
$Comp
L Device:R R9
U 1 1 5D1F8F7F
P 8500 4000
F 0 "R9" H 8570 4046 50  0000 L CNN
F 1 "10K" H 8570 3955 50  0000 L CNN
F 2 "Resistor_SMD:R_0402_1005Metric" V 8430 4000 50  0001 C CNN
F 3 "~" H 8500 4000 50  0001 C CNN
	1    8500 4000
	0    -1   -1   0   
$EndComp
$Comp
L Device:R R10
U 1 1 5D1F8FE9
P 7500 5300
F 0 "R10" H 7570 5346 50  0000 L CNN
F 1 "10K" H 7570 5255 50  0000 L CNN
F 2 "Resistor_SMD:R_0402_1005Metric" V 7430 5300 50  0001 C CNN
F 3 "~" H 7500 5300 50  0001 C CNN
	1    7500 5300
	1    0    0    -1  
$EndComp
$Comp
L Device:R R11
U 1 1 5D1F904F
P 7800 5300
F 0 "R11" H 7870 5346 50  0000 L CNN
F 1 "10K" H 7870 5255 50  0000 L CNN
F 2 "Resistor_SMD:R_0402_1005Metric" V 7730 5300 50  0001 C CNN
F 3 "~" H 7800 5300 50  0001 C CNN
	1    7800 5300
	1    0    0    -1  
$EndComp
$Comp
L Device:R R12
U 1 1 5D1F90B7
P 8100 5300
F 0 "R12" H 8170 5346 50  0000 L CNN
F 1 "10K" H 8170 5255 50  0000 L CNN
F 2 "Resistor_SMD:R_0402_1005Metric" V 8030 5300 50  0001 C CNN
F 3 "~" H 8100 5300 50  0001 C CNN
	1    8100 5300
	1    0    0    -1  
$EndComp
$Comp
L Device:R R5
U 1 1 5D1F9121
P 7300 4350
F 0 "R5" H 7370 4396 50  0000 L CNN
F 1 "50K" H 7370 4305 50  0000 L CNN
F 2 "Resistor_SMD:R_0402_1005Metric" V 7230 4350 50  0001 C CNN
F 3 "~" H 7300 4350 50  0001 C CNN
	1    7300 4350
	0    -1   -1   0   
$EndComp
$Comp
L Device:R R4
U 1 1 5D1F9195
P 7300 4700
F 0 "R4" H 7370 4746 50  0000 L CNN
F 1 "50K" H 7370 4655 50  0000 L CNN
F 2 "Resistor_SMD:R_0402_1005Metric" V 7230 4700 50  0001 C CNN
F 3 "~" H 7300 4700 50  0001 C CNN
	1    7300 4700
	0    -1   -1   0   
$EndComp
$Comp
L Device:C C13
U 1 1 5D1FA7B4
P 5500 2400
F 0 "C13" H 5615 2446 50  0000 L CNN
F 1 "0.1uF" H 5615 2355 50  0000 L CNN
F 2 "Capacitor_SMD:C_0805_2012Metric" H 5538 2250 50  0001 C CNN
F 3 "~" H 5500 2400 50  0001 C CNN
F 4 "GCM21BR71H104KA37L" H 5500 2400 50  0001 C CNN "MPN"
	1    5500 2400
	1    0    0    -1  
$EndComp
$Comp
L Device:C C14
U 1 1 5D1FCF7C
P 5950 2400
F 0 "C14" H 6065 2446 50  0000 L CNN
F 1 "10uF" H 6065 2355 50  0000 L CNN
F 2 "Capacitor_SMD:C_0603_1608Metric" H 5988 2250 50  0001 C CNN
F 3 "~" H 5950 2400 50  0001 C CNN
F 4 "GRM188R61E106KA73D" H 5950 2400 50  0001 C CNN "MPN"
	1    5950 2400
	1    0    0    -1  
$EndComp
Wire Wire Line
	5500 2150 5500 2250
Wire Wire Line
	5500 2150 5950 2150
Wire Wire Line
	5950 2250 5950 2150
Connection ~ 5950 2150
Wire Wire Line
	5950 2150 6650 2150
Wire Wire Line
	6500 2450 6500 2650
Wire Wire Line
	5500 2550 5500 2650
Wire Wire Line
	5500 2650 5950 2650
Wire Wire Line
	5950 2550 5950 2650
Connection ~ 5950 2650
Wire Wire Line
	5950 2650 6500 2650
Text Label 1450 6050 0    50   ~ 0
10V
Wire Wire Line
	2000 6400 2000 6100
Wire Wire Line
	2000 6100 1450 6100
Wire Wire Line
	1450 6100 1450 6400
Wire Wire Line
	1450 6050 1450 6100
Connection ~ 1450 6100
Wire Wire Line
	900  6400 900  6100
Wire Wire Line
	900  6100 1450 6100
Text Label 5500 1900 0    50   ~ 0
10V
Wire Wire Line
	5500 1900 5500 2150
Connection ~ 5500 2150
$Comp
L Device:R R14
U 1 1 5D231C3C
P 5350 4100
F 0 "R14" V 5350 4050 50  0000 L CNN
F 1 "40R" V 5450 4050 50  0000 L CNN
F 2 "Resistor_SMD:R_0402_1005Metric" V 5280 4100 50  0001 C CNN
F 3 "~" H 5350 4100 50  0001 C CNN
F 4 "RC0402FR-0740R2L" H 5350 4100 50  0001 C CNN "MPN"
	1    5350 4100
	0    -1   -1   0   
$EndComp
Text Label 6150 4250 0    50   ~ 0
3V3
Wire Wire Line
	6150 4250 6150 4300
Wire Wire Line
	6150 4300 5950 4300
Wire Wire Line
	5550 4100 5500 4100
Text Label 2000 3050 2    50   ~ 0
ALow
Text Label 2000 2950 2    50   ~ 0
BLow
Text Label 3500 2950 0    50   ~ 0
CLow
Text Label 3500 3250 0    50   ~ 0
AHigh
Text Label 3500 3150 0    50   ~ 0
BHigh
Text Label 3500 3050 0    50   ~ 0
CHigh
Wire Wire Line
	7500 5450 7500 5600
Wire Wire Line
	7500 5600 7800 5600
Wire Wire Line
	7800 5600 7800 5450
Connection ~ 7800 5600
Wire Wire Line
	7800 5600 8100 5600
Wire Wire Line
	8100 5600 8100 5450
Text Label 6900 4700 2    50   ~ 0
C
Text Label 6900 4000 2    50   ~ 0
A
Text Label 6900 4350 2    50   ~ 0
B
Wire Wire Line
	6900 4350 7150 4350
Wire Wire Line
	7150 4000 6900 4000
Wire Wire Line
	6900 4700 7150 4700
Wire Wire Line
	7450 4000 7500 4000
Wire Wire Line
	7450 4350 7800 4350
Wire Wire Line
	8350 4700 8250 4700
Wire Wire Line
	8650 4000 8900 4000
Wire Wire Line
	8900 4000 8900 4350
Wire Wire Line
	8650 4700 8900 4700
Connection ~ 8900 4700
Wire Wire Line
	8900 4700 8900 4850
Wire Wire Line
	8650 4350 8900 4350
Connection ~ 8900 4350
Wire Wire Line
	8900 4350 8900 4700
Wire Wire Line
	7500 5150 7500 4000
Connection ~ 7500 4000
Wire Wire Line
	7500 4000 8150 4000
Wire Wire Line
	7800 5150 7800 4350
Connection ~ 7800 4350
Wire Wire Line
	7800 4350 8200 4350
Wire Wire Line
	8100 5150 8100 4700
Connection ~ 8100 4700
Wire Wire Line
	8100 4700 7450 4700
Wire Wire Line
	10400 3600 10650 3600
Wire Wire Line
	8150 4000 8150 5150
Connection ~ 8150 4000
Wire Wire Line
	8150 4000 8350 4000
Wire Wire Line
	8200 4350 8200 5050
Connection ~ 8200 4350
Wire Wire Line
	8200 4350 8350 4350
Wire Wire Line
	8250 4700 8250 4950
Connection ~ 8250 4700
Wire Wire Line
	8250 4700 8100 4700
$Sheet
S 10050 1700 1050 500 
U 5D430721
F0 "FETS" 50
F1 "FETS.sch" 50
$EndSheet
Text Label 2000 3550 2    50   ~ 0
UART-TX
$Comp
L Connector:TestPoint_Probe TP1
U 1 1 5D463129
P 10300 5850
F 0 "TP1" H 10453 5952 50  0000 L CNN
F 1 "TestPoint_Probe" H 10453 5861 50  0000 L CNN
F 2 "TestPoint:TestPoint_Pad_D1.0mm" H 10500 5850 50  0001 C CNN
F 3 "~" H 10500 5850 50  0001 C CNN
	1    10300 5850
	1    0    0    -1  
$EndComp
$Comp
L Connector:TestPoint_Probe TP2
U 1 1 5D46327B
P 10300 6100
F 0 "TP2" H 10453 6202 50  0000 L CNN
F 1 "TestPoint_Probe" H 10453 6111 50  0000 L CNN
F 2 "TestPoint:TestPoint_Pad_D1.0mm" H 10500 6100 50  0001 C CNN
F 3 "~" H 10500 6100 50  0001 C CNN
	1    10300 6100
	1    0    0    -1  
$EndComp
$Comp
L Connector:TestPoint_Probe TP3
U 1 1 5D4632EB
P 10300 6350
F 0 "TP3" H 10453 6452 50  0000 L CNN
F 1 "TestPoint_Probe" H 10453 6361 50  0000 L CNN
F 2 "TestPoint:TestPoint_Pad_D1.0mm" H 10500 6350 50  0001 C CNN
F 3 "~" H 10500 6350 50  0001 C CNN
	1    10300 6350
	1    0    0    -1  
$EndComp
Text Label 9950 5850 2    50   ~ 0
A
Text Label 9950 6100 2    50   ~ 0
B
Text Label 9950 6350 2    50   ~ 0
C
Wire Wire Line
	10300 5850 9950 5850
Wire Wire Line
	9950 6100 10300 6100
Wire Wire Line
	10300 6350 9950 6350
Wire Notes Line
	6400 3750 6400 4800
Wire Notes Line
	6400 4800 4850 4800
Wire Notes Line
	4850 4800 4850 3750
Wire Notes Line
	4850 3750 6400 3750
Text Label 9000 4850 0    50   ~ 0
REF_BUS
Wire Wire Line
	9000 4850 8900 4850
Text Label 9000 4950 0    50   ~ 0
REF_C
Text Label 9000 5050 0    50   ~ 0
REF_B
Text Label 9000 5150 0    50   ~ 0
REF_A
Wire Wire Line
	8200 5050 9000 5050
Wire Wire Line
	8250 4950 9000 4950
Wire Wire Line
	8150 5150 9000 5150
Text Label 3500 2250 0    50   ~ 0
REF_C
Text Label 3500 2650 0    50   ~ 0
REF_B
Text Label 3500 2750 0    50   ~ 0
REF_A
Text Label 10400 3950 2    50   ~ 0
Signal
Wire Wire Line
	10400 3950 10650 3950
Text Label 5100 4100 2    50   ~ 0
LED_R
Wire Wire Line
	5200 4100 5100 4100
Text Label 5100 4300 2    50   ~ 0
LED_G
Text Label 5100 4500 2    50   ~ 0
LED_B
Wire Wire Line
	5100 4500 5550 4500
Wire Wire Line
	5100 4300 5550 4300
Text Label 2050 3250 2    50   ~ 0
LED_R
Text Label 2050 3350 2    50   ~ 0
LED_G
Text Label 2000 3450 2    50   ~ 0
LED_B
Wire Wire Line
	2000 3050 2200 3050
Wire Wire Line
	2000 2950 2200 2950
Wire Wire Line
	3500 2950 3300 2950
Wire Wire Line
	3500 3150 3300 3150
Wire Wire Line
	3500 3250 3300 3250
Wire Wire Line
	3500 3050 3300 3050
Wire Wire Line
	2050 3350 2200 3350
Wire Wire Line
	2200 3250 2050 3250
Text Label 4000 2450 0    50   ~ 0
Signal
Wire Wire Line
	3300 2750 3500 2750
Wire Wire Line
	3500 2650 3300 2650
Wire Wire Line
	3500 2250 3300 2250
Wire Wire Line
	2200 3550 2000 3550
Wire Wire Line
	2000 3450 2200 3450
Wire Wire Line
	7650 2600 7650 2800
Wire Wire Line
	7350 2600 7350 2800
Wire Wire Line
	7500 2600 7500 2800
Text GLabel 7350 2800 3    50   BiDi ~ 0
GLC
Text GLabel 7500 2800 3    50   BiDi ~ 0
GLB
Text GLabel 7650 2800 3    50   BiDi ~ 0
GLA
Text GLabel 8350 2450 2    50   BiDi ~ 0
GHC
Text GLabel 8350 2000 2    50   BiDi ~ 0
GHB
Text GLabel 7800 1350 1    50   BiDi ~ 0
GHA
Text GLabel 6500 2450 0    50   BiDi ~ 0
GND
Text GLabel 2750 4150 0    50   BiDi ~ 0
GND
Text GLabel 10400 3600 0    50   BiDi ~ 0
GND
Wire Wire Line
	2750 4150 2800 4150
Text GLabel 1900 1900 0    50   BiDi ~ 0
GND
Wire Wire Line
	1900 1900 2050 1900
Wire Wire Line
	2050 1900 2500 1900
Connection ~ 2050 1900
Text GLabel 7800 5850 0    50   BiDi ~ 0
GND
Wire Wire Line
	7800 5600 7800 5850
$Comp
L Connector_Generic:Conn_01x01 F1
U 1 1 5D6E33F8
P 900 4900
F 0 "F1" H 980 4942 50  0000 L CNN
F 1 "Conn_01x01" H 980 4851 50  0000 L CNN
F 2 "Fiducial:Fiducial_0.5mm_Mask1mm" H 900 4900 50  0001 C CNN
F 3 "~" H 900 4900 50  0001 C CNN
	1    900  4900
	1    0    0    -1  
$EndComp
$Comp
L Connector_Generic:Conn_01x01 F2
U 1 1 5D6E361D
P 900 5100
F 0 "F2" H 980 5142 50  0000 L CNN
F 1 "Conn_01x01" H 980 5051 50  0000 L CNN
F 2 "Fiducial:Fiducial_0.5mm_Mask1mm" H 900 5100 50  0001 C CNN
F 3 "~" H 900 5100 50  0001 C CNN
	1    900  5100
	1    0    0    -1  
$EndComp
NoConn ~ 700  4900
NoConn ~ 700  5100
Text GLabel 10350 5100 0    50   BiDi ~ 0
GND
Text GLabel 10350 4700 0    50   BiDi ~ 0
PWR_IN
$Comp
L Mechanical:MountingHole_Pad J10
U 1 1 5D734B26
P 10750 4700
F 0 "J10" V 10650 4600 50  0000 L CNN
F 1 "+BATT" V 10900 4700 50  0000 L CNN
F 2 "TestPoint:TestPoint_Pad_2.5x2.5mm" H 10750 4700 50  0001 C CNN
F 3 "~" H 10750 4700 50  0001 C CNN
	1    10750 4700
	0    1    1    0   
$EndComp
$Comp
L Mechanical:MountingHole_Pad J11
U 1 1 5D734BA2
P 10750 5100
F 0 "J11" V 10650 5000 50  0000 L CNN
F 1 "-BATT" V 10900 5100 50  0000 L CNN
F 2 "TestPoint:TestPoint_Pad_2.5x2.5mm" H 10750 5100 50  0001 C CNN
F 3 "~" H 10750 5100 50  0001 C CNN
	1    10750 5100
	0    1    1    0   
$EndComp
Wire Wire Line
	10350 5100 10650 5100
Wire Wire Line
	10650 4700 10350 4700
$Comp
L CRAZYSHARK:HT75A0 U3
U 1 1 5D2AA580
P 6100 5800
F 0 "U3" H 6100 6042 50  0000 C CNN
F 1 "HT75A0-3" H 6100 5951 50  0000 C CNN
F 2 "Package_TO_SOT_SMD:SOT-23-5" H 6100 6000 50  0001 C CNN
F 3 "https://datasheet.lcsc.com/szlcsc/1812181433_Holtek-Semicon-HT75A0-3_C259668.pdf" H 6200 5550 50  0001 C CNN
F 4 "HT75A0-3" H 6100 5800 50  0001 C CNN "MPN"
	1    6100 5800
	1    0    0    -1  
$EndComp
Text GLabel 5350 5800 0    50   BiDi ~ 0
PWR_IN
$Comp
L CRAZYSHARK:HT7533-7 U4
U 1 1 5D2B8748
P 4350 7050
F 0 "U4" H 4375 7415 50  0000 C CNN
F 1 "HT7533-7" H 4375 7324 50  0000 C CNN
F 2 "Package_TO_SOT_SMD:SOT-23-5" H 4350 7150 50  0001 C CNN
F 3 "https://datasheet.lcsc.com/szlcsc/1812071812_Holtek-Semicon-HT7533-7_C105222.pdf" H 4350 7150 50  0001 C CNN
F 4 "HT7533-7" H 4350 7050 50  0001 C CNN "MPN"
	1    4350 7050
	1    0    0    -1  
$EndComp
Text Label 5700 6950 0    50   ~ 0
3V3
Text Label 6800 5800 0    50   ~ 0
10V
Text GLabel 6050 6250 0    50   BiDi ~ 0
GND
Text GLabel 4300 7600 0    50   BiDi ~ 0
GND
Text GLabel 3100 6950 0    50   BiDi ~ 0
PWR_IN
$Comp
L Device:C C9
U 1 1 5D2C7867
P 5550 6000
F 0 "C9" H 5665 6046 50  0000 L CNN
F 1 "10uF" H 5665 5955 50  0000 L CNN
F 2 "Capacitor_SMD:C_0805_2012Metric" H 5588 5850 50  0001 C CNN
F 3 "~" H 5550 6000 50  0001 C CNN
F 4 "GRM188R61E106KA73D" H 5550 6000 50  0001 C CNN "MPN"
	1    5550 6000
	1    0    0    -1  
$EndComp
Wire Wire Line
	4050 7150 3900 7150
Wire Wire Line
	3900 7150 3900 6950
Connection ~ 3900 6950
Wire Wire Line
	3900 6950 4050 6950
Wire Wire Line
	5700 6950 5350 6950
Wire Wire Line
	4400 7450 4400 7500
Wire Wire Line
	4400 7600 4300 7600
Wire Wire Line
	6100 6100 6100 6150
Wire Wire Line
	6100 6250 6050 6250
Wire Wire Line
	5350 5800 5550 5800
Wire Wire Line
	5550 5850 5550 5800
Connection ~ 5550 5800
Wire Wire Line
	5550 5800 5800 5800
Wire Wire Line
	5550 6150 6100 6150
Connection ~ 6100 6150
$Comp
L Device:C C11
U 1 1 5D34575A
P 3650 7250
F 0 "C11" H 3765 7296 50  0000 L CNN
F 1 "10uF" H 3765 7205 50  0000 L CNN
F 2 "Capacitor_SMD:C_0603_1608Metric" H 3688 7100 50  0001 C CNN
F 3 "~" H 3650 7250 50  0001 C CNN
F 4 "GRM188R61E106KA73D" H 3650 7250 50  0001 C CNN "MPN"
	1    3650 7250
	1    0    0    -1  
$EndComp
$Comp
L Device:C C12
U 1 1 5D34580E
P 4950 7250
F 0 "C12" H 5065 7296 50  0000 L CNN
F 1 "10uF" H 5065 7205 50  0000 L CNN
F 2 "Capacitor_SMD:C_0603_1608Metric" H 4988 7100 50  0001 C CNN
F 3 "~" H 4950 7250 50  0001 C CNN
F 4 "GRM188R61E106KA73D" H 4950 7250 50  0001 C CNN "MPN"
	1    4950 7250
	1    0    0    -1  
$EndComp
Wire Wire Line
	3650 7100 3650 6950
Connection ~ 3650 6950
Wire Wire Line
	3650 6950 3900 6950
Wire Wire Line
	4950 7100 4950 6950
Connection ~ 4950 6950
Wire Wire Line
	4950 6950 4700 6950
Wire Wire Line
	4950 7400 4950 7550
Wire Wire Line
	4950 7550 4400 7550
Connection ~ 4400 7550
Wire Wire Line
	4400 7550 4400 7600
Wire Wire Line
	3650 7400 3650 7500
Wire Wire Line
	3650 7500 4400 7500
Connection ~ 4400 7500
Wire Wire Line
	4400 7500 4400 7550
$Comp
L Device:C C20
U 1 1 5D3920A8
P 5350 7250
F 0 "C20" H 5465 7296 50  0000 L CNN
F 1 "100nF" H 5465 7205 50  0000 L CNN
F 2 "Capacitor_SMD:C_0603_1608Metric" H 5388 7100 50  0001 C CNN
F 3 "~" H 5350 7250 50  0001 C CNN
F 4 "GCM188R71H104KA57D" H 5350 7250 50  0001 C CNN "MPN"
	1    5350 7250
	1    0    0    -1  
$EndComp
Wire Wire Line
	5350 7400 5350 7550
Wire Wire Line
	5350 7550 4950 7550
Connection ~ 4950 7550
Wire Wire Line
	5350 7100 5350 6950
Connection ~ 5350 6950
Wire Wire Line
	5350 6950 4950 6950
$Comp
L Device:C C19
U 1 1 5D3A6358
P 3200 7250
F 0 "C19" H 3315 7296 50  0000 L CNN
F 1 "100nF" H 3315 7205 50  0000 L CNN
F 2 "Capacitor_SMD:C_0603_1608Metric" H 3238 7100 50  0001 C CNN
F 3 "~" H 3200 7250 50  0001 C CNN
F 4 "GCM188R71H104KA57D" H 3200 7250 50  0001 C CNN "MPN"
	1    3200 7250
	1    0    0    -1  
$EndComp
Wire Wire Line
	3200 7100 3200 6950
Wire Wire Line
	3100 6950 3200 6950
Connection ~ 3200 6950
Wire Wire Line
	3200 6950 3650 6950
Wire Wire Line
	3200 7400 3200 7500
Wire Wire Line
	3200 7500 3650 7500
Connection ~ 3650 7500
Text Label 10350 4300 2    50   ~ 0
UART-TX
Wire Wire Line
	10350 4300 10650 4300
$Comp
L Mechanical:MountingHole_Pad J9
U 1 1 5D479D21
P 10750 4300
F 0 "J9" V 10650 4200 50  0000 L CNN
F 1 "TX" V 10900 4300 50  0000 L CNN
F 2 "TestPoint:TestPoint_Pad_1.5x1.5mm" H 10750 4300 50  0001 C CNN
F 3 "~" H 10750 4300 50  0001 C CNN
	1    10750 4300
	0    1    1    0   
$EndComp
$Comp
L Diode:1N4148WS D2
U 1 1 5D3FE1E4
P 1450 6550
F 0 "D2" H 1450 6767 50  0000 C CNN
F 1 "RB521S-30" H 1450 6676 50  0000 C CNN
F 2 "Diode_SMD:D_SOD-523" H 1450 6375 50  0001 C CNN
F 3 "https://datasheet.lcsc.com/szlcsc/SK-RB521S-30_C122862.pdf" H 1450 6550 50  0001 C CNN
F 4 "RB521S-30" H 1450 6550 50  0001 C CNN "MPN"
	1    1450 6550
	0    -1   -1   0   
$EndComp
$Comp
L Diode:1N4148WS D3
U 1 1 5D3FE26E
P 2000 6550
F 0 "D3" H 2000 6767 50  0000 C CNN
F 1 "RB521S-30" H 2000 6676 50  0000 C CNN
F 2 "Diode_SMD:D_SOD-523" H 2000 6375 50  0001 C CNN
F 3 "https://datasheet.lcsc.com/szlcsc/SK-RB521S-30_C122862.pdf" H 2000 6550 50  0001 C CNN
F 4 "RB521S-30" H 2000 6550 50  0001 C CNN "MPN"
	1    2000 6550
	0    -1   -1   0   
$EndComp
$Comp
L Device:C C2
U 1 1 5D3FE40F
P 1450 7200
F 0 "C2" H 1565 7246 50  0000 L CNN
F 1 "1uF" H 1565 7155 50  0000 L CNN
F 2 "Capacitor_SMD:C_0402_1005Metric" H 1488 7050 50  0001 C CNN
F 3 "~" H 1450 7200 50  0001 C CNN
F 4 "EMK105BJ105KVHF" H 1450 7200 50  0001 C CNN "MPN"
	1    1450 7200
	1    0    0    -1  
$EndComp
$Comp
L Device:C C3
U 1 1 5D3FE49B
P 2000 7200
F 0 "C3" H 2115 7246 50  0000 L CNN
F 1 "1uF" H 2115 7155 50  0000 L CNN
F 2 "Capacitor_SMD:C_0402_1005Metric" H 2038 7050 50  0001 C CNN
F 3 "~" H 2000 7200 50  0001 C CNN
F 4 "EMK105BJ105KVHF" H 2000 7200 50  0001 C CNN "MPN"
	1    2000 7200
	1    0    0    -1  
$EndComp
$Comp
L MCU_ST_STM32F0:STM32F051K8Ux U5
U 1 1 5D32A5A9
P 2800 2950
F 0 "U5" H 2350 2000 50  0000 C CNN
F 1 "STM32F051K8Ux" H 3200 2000 50  0000 C CNN
F 2 "Package_DFN_QFN:QFN-32-1EP_5x5mm_P0.5mm_EP3.45x3.45mm" H 2300 2050 50  0001 R CNN
F 3 "http://www.st.com/st-web-ui/static/active/en/resource/technical/document/datasheet/DM00039193.pdf" H 2800 2950 50  0001 C CNN
	1    2800 2950
	1    0    0    -1  
$EndComp
Wire Wire Line
	2800 2050 2800 1950
Wire Wire Line
	2800 1950 2900 1950
Connection ~ 2900 1950
Wire Wire Line
	2900 1950 2900 2050
Wire Wire Line
	2800 1950 2700 1950
Wire Wire Line
	2700 1950 2700 2050
Connection ~ 2800 1950
$Comp
L Device:R R20
U 1 1 5D35E5EC
P 1900 2250
F 0 "R20" H 1970 2296 50  0000 L CNN
F 1 "10K" H 1970 2205 50  0000 L CNN
F 2 "Resistor_SMD:R_0402_1005Metric" V 1830 2250 50  0001 C CNN
F 3 "~" H 1900 2250 50  0001 C CNN
	1    1900 2250
	0    -1   -1   0   
$EndComp
Wire Wire Line
	2050 2250 2200 2250
Wire Wire Line
	1750 2250 1750 2000
Wire Wire Line
	1750 2000 2600 2000
Wire Wire Line
	2600 2000 2600 1950
Wire Wire Line
	2600 1950 2700 1950
Connection ~ 2700 1950
NoConn ~ 3300 3750
NoConn ~ 3300 2550
NoConn ~ 3300 2850
NoConn ~ 3300 3350
NoConn ~ 3300 3450
NoConn ~ 2200 2650
NoConn ~ 2200 2750
NoConn ~ 2200 3150
NoConn ~ 2200 3750
Wire Wire Line
	10050 1200 10250 1200
Wire Wire Line
	3450 3650 3300 3650
Text Label 3550 2350 0    50   ~ 0
REF_BUS
$Comp
L Device:R R2
U 1 1 5D51A85E
P 1900 2450
F 0 "R2" V 2000 2500 50  0000 L CNN
F 1 "10K" V 1900 2400 50  0000 L CNN
F 2 "Resistor_SMD:R_0402_1005Metric" V 1830 2450 50  0001 C CNN
F 3 "~" H 1900 2450 50  0001 C CNN
	1    1900 2450
	0    -1   -1   0   
$EndComp
Wire Wire Line
	2200 2450 2050 2450
Text GLabel 1650 2450 0    50   BiDi ~ 0
GND
Wire Wire Line
	1650 2450 1750 2450
Wire Wire Line
	3550 2350 3300 2350
$Comp
L Device:R R3
U 1 1 5D57BE6B
P 3550 2450
F 0 "R3" V 3500 2250 50  0000 L CNN
F 1 "2K2" V 3550 2400 50  0000 L CNN
F 2 "Resistor_SMD:R_0402_1005Metric" V 3480 2450 50  0001 C CNN
F 3 "~" H 3550 2450 50  0001 C CNN
	1    3550 2450
	0    -1   -1   0   
$EndComp
Wire Wire Line
	3700 2450 4000 2450
Wire Wire Line
	3400 2450 3300 2450
$Comp
L power:GND #PWR0101
U 1 1 5D641873
P 2800 4250
F 0 "#PWR0101" H 2800 4000 50  0001 C CNN
F 1 "GND" H 2805 4077 50  0000 C CNN
F 2 "" H 2800 4250 50  0001 C CNN
F 3 "" H 2800 4250 50  0001 C CNN
	1    2800 4250
	1    0    0    -1  
$EndComp
Wire Wire Line
	2800 4250 2800 4150
Wire Wire Line
	2800 3950 2800 4150
Connection ~ 2800 4150
Wire Wire Line
	6400 5800 6800 5800
Wire Wire Line
	6100 6150 6100 6250
$Comp
L Connector_Generic:Conn_01x01 F3
U 1 1 5D2F07DD
P 900 5300
F 0 "F3" H 980 5342 50  0000 L CNN
F 1 "Conn_01x01" H 980 5251 50  0000 L CNN
F 2 "Fiducial:Fiducial_0.5mm_Mask1mm" H 900 5300 50  0001 C CNN
F 3 "~" H 900 5300 50  0001 C CNN
	1    900  5300
	1    0    0    -1  
$EndComp
$Comp
L Connector_Generic:Conn_01x01 F4
U 1 1 5D2F0CD4
P 900 5500
F 0 "F4" H 980 5542 50  0000 L CNN
F 1 "Conn_01x01" H 980 5451 50  0000 L CNN
F 2 "Fiducial:Fiducial_0.5mm_Mask1mm" H 900 5500 50  0001 C CNN
F 3 "~" H 900 5500 50  0001 C CNN
	1    900  5500
	1    0    0    -1  
$EndComp
NoConn ~ 700  5300
NoConn ~ 700  5500
NoConn ~ 2200 3650
$EndSCHEMATC
